Times Series Predictions On Batting OPS of Baseball Players
…
# removing missing statistics after OPS, SLG, and OPS calculations
Batting.merge <- na.omit(Batting.merge) 

# Getting rid of duplicates
Batting.merge <- Batting.merge [!duplicated(Batting.merge[c(1,2)]),] 
 
# Building tsibble
Batting.merge %>% 
  mutate(Season = lubridate::as_date(Season)) %>%
  mutate(playerID = as.factor(playerID)) %>%
  mutate(Season   = as_date(Season)) %>%
  as_tsibble(key = playerID, index = Season)

## # A tsibble: 49,882 x 25 [1D]
## # Key:       playerID [9,382]
##    playerID  yearID Season     teamID lgID      G    AB     R     H   X2B   X3B
##    <fct>      <int> <date>     <fct>  <fct> <int> <int> <int> <int> <int> <int>
##  1 aardsda01   2006 1970-01-04 CHN    NL       45     2     0     0     0     0
##  2 aardsda01   2008 1970-01-06 BOS    AL       47     1     0     0     0     0
##  3 aardsda01   2015 1970-01-13 ATL    NL       33     1     0     0     0     0
##  4 aaronha01   1954 1970-01-02 ML1    NL      122   468    58   131    27     6
##  5 aaronha01   1955 1970-01-03 ML1    NL      153   602   105   189    37     9
##  6 aaronha01   1956 1970-01-04 ML1    NL      153   609   106   200    34    14
##  7 aaronha01   1957 1970-01-05 ML1    NL      151   615   118   198    27     6
##  8 aaronha01   1958 1970-01-06 ML1    NL      153   601   109   196    34     4
##  9 aaronha01   1959 1970-01-07 ML1    NL      154   629   116   223    46     7
## 10 aaronha01   1960 1970-01-08 ML1    NL      153   590   102   172    20    11
## # ... with 49,872 more rows, and 14 more variables: HR <int>, RBI <int>,
## #   SB <int>, CS <int>, BB <int>, SO <int>, HBP <dbl>, SH <int>, SF <int>,
## #   GIDP <int>, Bavg <dbl>, SLG <dbl>, OBP <dbl>, OPS <dbl>

Batting_tsbl <- as_tsibble(Batting.merge, key = playerID, index = Season)
Batting_tsbl

## # A tsibble: 49,882 x 25 [1]
## # Key:       playerID [9,382]
##    playerID yearID Season teamID lgID      G    AB     R     H   X2B   X3B    HR
##    <chr>     <int>  <dbl> <fct>  <fct> <int> <int> <int> <int> <int> <int> <int>
##  1 aardsda~   2006      3 CHN    NL       45     2     0     0     0     0     0
##  2 aardsda~   2008      5 BOS    AL       47     1     0     0     0     0     0
##  3 aardsda~   2015     12 ATL    NL       33     1     0     0     0     0     0
##  4 aaronha~   1954      1 ML1    NL      122   468    58   131    27     6    13
##  5 aaronha~   1955      2 ML1    NL      153   602   105   189    37     9    27
##  6 aaronha~   1956      3 ML1    NL      153   609   106   200    34    14    26
##  7 aaronha~   1957      4 ML1    NL      151   615   118   198    27     6    44
##  8 aaronha~   1958      5 ML1    NL      153   601   109   196    34     4    30
##  9 aaronha~   1959      6 ML1    NL      154   629   116   223    46     7    39
## 10 aaronha~   1960      7 ML1    NL      153   590   102   172    20    11    40
## # ... with 49,872 more rows, and 13 more variables: RBI <int>, SB <int>,
## #   CS <int>, BB <int>, SO <int>, HBP <dbl>, SH <int>, SF <int>, GIDP <int>,
## #   Bavg <dbl>, SLG <dbl>, OBP <dbl>, OPS <dbl>
…
